harmonic-1 1 1 1 1.67 1.67 29 29;
harmonic-2 1 0.4 2.02 1.67 1.67 15 15;
harmonic-3 1 0.18 2.67 12.5 12.5 1 0;
harmonic-4 1 0.36 5.32 3.2 3.2 21 21;
harmonic-5 1 0.41 5.84 15 15 1 0;
harmonic-6 1 0.21 6.6 20 20 1 0;
harmonic-7 1 0.14 8.83 20 20 1 0;
harmonic-8 1 0.25 9.98 29 29 1 0;
harmonic-9 1 0.15 14.09 10 10 19 19;
octave 0;
freq-variation 1;
amp-variation 15;
envelope 5 1537.75;
reverb 0.4;
